\babel@toc {czech}{}
\contentsline {chapter}{Introduction}{6}{chapter*.4}
\contentsline {chapter}{\numberline {1}Scale Factors}{7}{chapter.1}
\contentsline {chapter}{Conclusion}{8}{chapter*.5}
\contentsline {chapter}{Literature}{9}{chapter*.6}
